<?xml version="1.0" encoding="UTF-8" standalone="no"?>
<!-- Created with Inkscape (http://www.inkscape.org/) -->

<svg
   width="201.91045mm"
   height="201.91045mm"
   viewBox="0 0 201.91045 201.91045"
   version="1.1"
   id="svg5"
   xmlns="http://www.w3.org/2000/svg"
   xmlns:svg="http://www.w3.org/2000/svg">
  <defs
     id="defs2">
    <marker
       style="overflow:visible;"
       id="Arrow1Mend"
       refX="0.0"
       refY="0.0"
       orient="auto">
      <path
         transform="scale(0.4) rotate(180) translate(10,0)"
         style="fill-rule:evenodd;fill:context-stroke;stroke:context-stroke;stroke-width:1.0pt;"
         d="M 0.0,0.0 L 5.0,-5.0 L -12.5,0.0 L 5.0,5.0 L 0.0,0.0 z "
         id="path2174" />
    </marker>
    <clipPath
       clipPathUnits="userSpaceOnUse"
       id="clipPath2020">
      <rect
         style="fill:none;fill-opacity:1;stroke:#000000;stroke-width:3;stroke-linecap:round;stroke-linejoin:round;stroke-miterlimit:4;stroke-dasharray:none;stroke-opacity:0.5"
         id="rect2022"
         width="201.91045"
         height="201.91045"
         x="-42.072865"
         y="61.399712" />
    </clipPath>
  </defs>
  <g
     id="layer1"
     transform="translate(3.5207975,1.7047824)">
    <g
       id="g1914"
       clip-path="url(#clipPath2020)"
       transform="translate(38.552067,-63.104494)">
      <path
         style="fill:#7cffb7;stroke:#000000;stroke-width:2;stroke-linecap:butt;stroke-linejoin:miter;stroke-miterlimit:4;stroke-dasharray:none;stroke-opacity:1"
         d="M -65.458843,338.51741 180.7025,-0.86674077 434.82581,116.9405 61.591686,574.92324 Z"
         id="path857" />
      <path
         style="fill:#ffafb0;fill-opacity:1;stroke:#000000;stroke-width:2;stroke-linecap:butt;stroke-linejoin:miter;stroke-miterlimit:4;stroke-dasharray:none;stroke-opacity:1"
         d="M -65.458843,338.51741 -242.94406,154.69248 139.93906,-95.215372 180.7025,-0.86674077"
         id="path1071" />
      <path
         style="fill:none;stroke:#000000;stroke-width:3;stroke-linecap:butt;stroke-linejoin:miter;stroke-miterlimit:4;stroke-dasharray:none;stroke-opacity:1"
         d="M -65.458843,338.51741 180.7025,-0.86674077"
         id="path1320" />
    </g>
    <path
       style="fill:none;stroke:#000000;stroke-width:3.93144;stroke-linecap:butt;stroke-linejoin:miter;stroke-miterlimit:4;stroke-dasharray:none;stroke-opacity:1;marker-end:url(#Arrow1Mend)"
       d="m 99.851622,102.31547 63.042028,44.47855"
       id="path2083" />
  </g>
</svg>
