<?xml version="1.0" encoding="UTF-8" standalone="no"?>
<!-- Created with Inkscape (http://www.inkscape.org/) -->

<svg
   width="608.54169mm"
   height="608.54169mm"
   viewBox="0 0 608.5417 608.5417"
   version="1.1"
   id="svg5"
   xmlns="http://www.w3.org/2000/svg"
   xmlns:svg="http://www.w3.org/2000/svg">
  <defs
     id="defs2">
    <marker
       style="overflow:visible"
       id="Arrow1Mend"
       refX="0"
       refY="0"
       orient="auto">
      <path
         transform="matrix(-0.4,0,0,-0.4,-4,0)"
         style="fill:context-stroke;fill-rule:evenodd;stroke:context-stroke;stroke-width:1pt"
         d="M 0,0 5,-5 -12.5,0 5,5 Z"
         id="path2174" />
    </marker>
    <clipPath
       clipPathUnits="userSpaceOnUse"
       id="clipPath2020">
      <rect
         style="fill:none;fill-opacity:1;stroke:#000000;stroke-width:3;stroke-linecap:round;stroke-linejoin:round;stroke-miterlimit:4;stroke-dasharray:none;stroke-opacity:0.5"
         id="rect2022"
         width="201.91045"
         height="201.91045"
         x="-42.072865"
         y="61.399712" />
    </clipPath>
    <clipPath
       clipPathUnits="userSpaceOnUse"
       id="clipPath7788">
      <rect
         style="fill:#a6f5ff;fill-opacity:0;stroke:#000000;stroke-width:0.64086;stroke-linecap:round;stroke-linejoin:round;stroke-miterlimit:4;stroke-dasharray:none;stroke-opacity:0.5"
         id="rect7790"
         width="1859.6738"
         height="1859.6738"
         x="-716.17548"
         y="-738.37817" />
    </clipPath>
    <clipPath
       clipPathUnits="userSpaceOnUse"
       id="clipPath8270">
      <rect
         style="fill:#a6f5ff;fill-opacity:0;stroke:#000000;stroke-width:0.264999;stroke-linecap:round;stroke-linejoin:round;stroke-miterlimit:4;stroke-dasharray:none;stroke-opacity:0.5"
         id="rect8272"
         width="600.49536"
         height="600.49536"
         x="-212.60495"
         y="-209.75725" />
    </clipPath>
    <clipPath
       clipPathUnits="userSpaceOnUse"
       id="clipPath9913">
      <rect
         style="opacity:1;fill:none;fill-opacity:0;stroke:#000000;stroke-width:4.99999;stroke-linecap:round;stroke-linejoin:round;stroke-miterlimit:4;stroke-dasharray:none;stroke-opacity:0.5"
         id="rect9915"
         width="608.54169"
         height="608.54169"
         x="-3.5207975"
         y="-1.7047824" />
    </clipPath>
    <clipPath
       clipPathUnits="userSpaceOnUse"
       id="clipPath10346">
      <rect
         style="opacity:1;fill:none;fill-opacity:0;stroke:#000000;stroke-width:4.99999;stroke-linecap:round;stroke-linejoin:round;stroke-miterlimit:4;stroke-dasharray:none;stroke-opacity:0.5"
         id="rect10348"
         width="608.54169"
         height="608.54169"
         x="-3.5207975"
         y="-1.7047824" />
    </clipPath>
  </defs>
  <g
     id="layer1"
     transform="translate(3.5207975,1.7047824)">
    <g
       id="g10238"
       clip-path="url(#clipPath10346)">
      <path
         style="fill:#a6f5ff;fill-opacity:0.29724;stroke:none;stroke-width:5;stroke-linecap:butt;stroke-linejoin:miter;stroke-miterlimit:4;stroke-dasharray:none;stroke-opacity:1"
         d="M 48.21139,-108.0264 837.27337,655.60615 148.77681,1252.172 -540.58928,467.04124 Z"
         id="path2740" />
      <path
         style="fill:#a6f5ff;fill-opacity:0.29724;stroke:none;stroke-width:5;stroke-linecap:butt;stroke-linejoin:miter;stroke-miterlimit:4;stroke-dasharray:none;stroke-opacity:1"
         d="M 6.8069,-231.11588 -93.30087,477.30702 649.36789,246.4565 733.78622,-319.22389 Z"
         id="path6693" />
    </g>
  </g>
</svg>
