<?xml version="1.0" encoding="UTF-8" standalone="no"?>
<svg
   version="1.1"
   width="1920"
   height="1080"
   id="svg51"
   xmlns="http://www.w3.org/2000/svg"
   xmlns:svg="http://www.w3.org/2000/svg">
  <defs
     id="defs55">
    <marker
       style="overflow:visible"
       id="Arrow1Mstart"
       refX="0.0"
       refY="0.0"
       orient="auto">
      <path
         transform="scale(0.4) translate(10,0)"
         style="fill-rule:evenodd;fill:context-stroke;stroke:context-stroke;stroke-width:1.0pt"
         d="M 0.0,0.0 L 5.0,-5.0 L -12.5,0.0 L 5.0,5.0 L 0.0,0.0 z "
         id="path53052" />
    </marker>
  </defs>
  <g
     id="strokes"
     style="display:inline">
    <path
       style="fill:none;stroke:#000000;stroke-width:3.77952756;stroke-linecap:round;stroke-linejoin:round;stroke-opacity:0.30965716;stroke-miterlimit:4;stroke-dasharray:3.77952756, 7.55905512;stroke-dashoffset:0;paint-order:fill markers stroke"
       d="M 960,397.46524 V 583.759"
       id="path3333" />
    <path
       style="fill:none;stroke:#000000;stroke-width:3.77952766;stroke-linecap:round;stroke-linejoin:round;stroke-opacity:0.3069258;stroke-miterlimit:4;stroke-dasharray:3.77952766, 7.55905533;stroke-dashoffset:0;paint-order:fill markers stroke"
       d="M 960,715.99098 V 735.218"
       id="path4859" />
    <path
       style="fill:none;stroke:#000000;stroke-width:2.56618;stroke-linecap:round;stroke-linejoin:round;stroke-miterlimit:3;stroke-dasharray:2.56618, 2.56618;stroke-dashoffset:5.90218;stroke-opacity:0.314146;paint-order:fill markers stroke"
       d="m 959.999,180.22265 v 10.37413"
       id="path1649" />
    <path
       fill="none"
       stroke-width="2.99999"
       stroke-linecap="butt"
       stroke-opacity="1"
       stroke="#000000"
       stroke-linejoin="round"
       d="m 960,735.218 v 10 10 10 10 10 10 10 10 9.99999 10.00001 10 9.99999 10.00001 10.00001 7.36199"
       id="path10"
       style="display:inline;stroke-linecap:round" />
  </g>
  <g
     id="layer1"
     style="display:inline">
    <path
       style="display:inline;fill:#60d8ff;fill-opacity:0.275675;stroke:#07b0ef;stroke-width:3.77953;stroke-linecap:round;stroke-linejoin:round;stroke-miterlimit:4;stroke-dasharray:none;stroke-opacity:1"
       d="m 431.25,78.84137 528.749,114.668 530.81,90.849 -532.545,-111.452 z"
       id="path1181" />
    <path
       style="display:inline;opacity:1;fill:#60d8ff;fill-opacity:0.275675;stroke:#07b0ef;stroke-width:3.77953;stroke-linecap:round;stroke-linejoin:round;stroke-miterlimit:4;stroke-dasharray:none;stroke-opacity:1"
       d="M 458.057,378.777 840.905,621.225 1499.78,413.946 1043.03,238.506 458.057,378.777"
       id="path2709" />
    <path
       style="display:inline;fill:#7cffb7;fill-opacity:0.275675;stroke:#26cf11;stroke-width:3.77953;stroke-linecap:round;stroke-linejoin:round;stroke-miterlimit:4;stroke-dasharray:none;stroke-opacity:0.27450982"
       d="M 461.903,836.813 960,735.218 1456.789,592.344 960,700.313 461.903,836.813"
       id="path4330" />
  </g>
  <g
     id="layer2">
    <path
       fill="none"
       stroke-width="3"
       stroke-linecap="butt"
       stroke-opacity="1"
       stroke="#000000"
       stroke-linejoin="round"
       d="m 959.999,93.12412 v 60.09125 10 10 8.03835"
       id="path2"
       style="display:inline;stroke-linecap:round;marker-start:url(#Arrow1Mstart)" />
    <path
       fill="none"
       stroke-width="2.91855"
       stroke-linecap="butt"
       stroke-opacity="1"
       stroke="#000000"
       stroke-linejoin="round"
       d="m 960,587.34894 v 9.72852 9.72851 9.72851 9.72851 9.72851 9.72851 9.72852 9.72851 9.72851 9.72851 9.72851 6.37607 15.25234"
       id="path12"
       style="display:inline;stroke-linecap:round" />
    <path
       fill="none"
       stroke-width="2.94203"
       stroke-linecap="butt"
       stroke-opacity="1"
       stroke="#000000"
       stroke-linejoin="round"
       d="m 959.99901,196.7785 0,37.6714 9.8e-4,9.80677 v 9.80678 7.0393 9.80678 9.80678 9.80678 9.80677 9.80678 9.80678 9.80677 9.80678 9.80678 9.80677 9.80678 9.80678 11.80735 6.87381"
       id="path14"
       style="display:inline;stroke-linecap:round" />
    <circle
       style="font-variation-settings:normal;opacity:1;vector-effect:none;fill:#ff5337;fill-opacity:1;fill-rule:evenodd;stroke:none;stroke-width:0.469778px;stroke-linecap:butt;stroke-linejoin:miter;stroke-miterlimit:4;stroke-dasharray:none;stroke-dashoffset:0;stroke-opacity:1;-inkscape-stroke:none;stop-color:#000000;stop-opacity:1"
       id="path53452"
       cx="960.12817"
       cy="885.73926"
       r="9.5217886" />
  </g>
</svg>
